{
    "restserver": {
        "name":"rest server 1",
        "ip":"0.0.0.0",
        "port":"20101",
        "cert": "certs/server.crt",
        "key": "certs/server.key",
        "password":"secret"
    }
}